{
	"id": "0c5b769f-6ca8-4d47-b168-46a870922e97",
	"name": "KUBERNETES",
	"values": [
		{
			"key": "baseUrl",
			"value": "https://local-apps.kairosds.com",
			"type": "default",
			"enabled": true
		}
	],
	"_postman_variable_scope": "environment",
	"_postman_exported_at": "2022-08-17T11:53:19.474Z",
	"_postman_exported_using": "Postman/9.28.2"
}